{"url":"https:\/\/****.bitrix24.ru\/rest\/user.current.json",
  "info":{"url":"https:\/\/hugs.bitrix24.ru\/rest\/user.current.json","content_type":"application\/json; charset=utf-8",
    "http_code":200,"header_size":1087,"request_size":182,"filetime":-1,"ssl_verify_result":0,"redirect_count":0,
    "total_time":0.1383729999999999960014207545100362040102481842041015625,"namelookup_time":0.0025969999999999999161504060651850522845052182674407958984375,
    "connect_time":0.0225239999999999988833376818320175516419112682342529296875,"pretransfer_time":0.05821400000000000185540471875356161035597324371337890625,
    "size_upload":75,"size_download":731,"speed_download":5282,"speed_upload":542,"download_content_length":-1,"upload_content_length":75,
    "starttransfer_time":0.058217999999999998916866417175697279162704944610595703125,"redirect_time":0,"redirect_url":"","primary_ip":"178.132.201.51",
    "certinfo":[],"primary_port":443,"local_ip":"87.236.20.246","local_port":60115,"http_version":3,"protocol":2,"ssl_verifyresult":0,
    "scheme":"HTTPS","appconnect_time_us":57889,"connect_time_us":22524,"namelookup_time_us":2597,"pretransfer_time_us":58214,
    "redirect_time_us":0,"starttransfer_time_us":58218,"total_time_us":138373},
  "params":{"method":"user.current","params":{"auth":"e8632465006786be0061011a00000029f0f1071113bb97a47740a946354a946535758a"}},
  "result":{"result":{"ID":"41","XML_ID":"51709054","ACTIVE":true,"NAME":"\u0418\u0433\u043e\u0440\u044c","LAST_NAME":"\u0420\u0432\u0430\u0447\u0435\u0432",
    "EMAIL":"*******@gmail.com","LAST_LOGIN":"2023-10-09T23:05:37+03:00","DATE_REGISTER":"2023-10-05T03:00:00+03:00","IS_ONLINE":"Y",
    "TIME_ZONE_OFFSET":"-3600","TIMESTAMP_X":"05.10.2023 17:31:00","LAST_ACTIVITY_DATE":"2023-10-09 23:05:38","PERSONAL_GENDER":"",
    "PERSONAL_BIRTHDAY":"","UF_EMPLOYMENT_DATE":"","UF_DEPARTMENT":[1]},"time":{"start":1696882034.898519039154052734375,
    "finish":1696882034.9282500743865966796875,"duration":0.0297310352325439453125,"processing":0.0011808872222900390625,
    "date_start":"2023-10-09T23:07:14+03:00","date_finish":"2023-10-09T23:07:14+03:00","operating_reset_at":1696882634,"operating":0}}}